using System;
namespace HelloWorld
{
    class 
    {
        static void Main() 
        {
           int i =9;
         
           
           
        }
    };
    class nour {


                };
}
