^C:\USERS\ANDROID-8AC77B8677CE\DOWNLOADS\COMPILER_28-4_44444441\COMPILER_5-4_44444441\NEWTEST\DEBUG\ASSIGNMENTNODE.OBJ|C:\USERS\ANDROID-8AC77B8677CE\DOWNLOADS\COMPILER_28-4_44444441\COMPILER_5-4_44444441\NEWTEST\DEBUG\BINARYOPERATIONNODE.OBJ|C:\USERS\ANDROID-8AC77B8677CE\DOWNLOADS\COMPILER_28-4_44444441\COMPILER_5-4_44444441\NEWTEST\DEBUG\BREAKNODE.OBJ|C:\USERS\ANDROID-8AC77B8677CE\DOWNLOADS\COMPILER_28-4_44444441\COMPILER_5-4_44444441\NEWTEST\DEBUG\CATCHNODE.OBJ|C:\USERS\ANDROID-8AC77B8677CE\DOWNLOADS\COMPILER_28-4_44444441\COMPILER_5-4_44444441\NEWTEST\DEBUG\CLASSDEFINENODE.OBJ|C:\USERS\ANDROID-8AC77B8677CE\DOWNLOADS\COMPILER_28-4_44444441\COMPILER_5-4_44444441\NEWTEST\DEBUG\CLASSMEMNODE.OBJ|C:\USERS\ANDROID-8AC77B8677CE\DOWNLOADS\COMPILER_28-4_44444441\COMPILER_5-4_44444441\NEWTEST\DEBUG\CONTINUENODE.OBJ|C:\USERS\ANDROID-8AC77B8677CE\DOWNLOADS\COMPILER_28-4_44444441\COMPILER_5-4_44444441\NEWTEST\DEBUG\ELSENODE.OBJ|C:\USERS\ANDROID-8AC77B8677CE\DOWNLOADS\COMPILER_28-4_44444441\COMPILER_5-4_44444441\NEWTEST\DEBUG\FORNODE.OBJ|C:\USERS\ANDROID-8AC77B8677CE\DOWNLOADS\COMPILER_28-4_44444441\COMPILER_5-4_44444441\NEWTEST\DEBUG\FUNCTIONDEFINENODE.OBJ|C:\USERS\ANDROID-8AC77B8677CE\DOWNLOADS\COMPILER_28-4_44444441\COMPILER_5-4_44444441\NEWTEST\DEBUG\IDNODE.OBJ|C:\USERS\ANDROID-8AC77B8677CE\DOWNLOADS\COMPILER_28-4_44444441\COMPILER_5-4_44444441\NEWTEST\DEBUG\IFNODE.OBJ|C:\USERS\ANDROID-8AC77B8677CE\DOWNLOADS\COMPILER_28-4_44444441\COMPILER_5-4_44444441\NEWTEST\DEBUG\LEAFNODE.OBJ|C:\USERS\ANDROID-8AC77B8677CE\DOWNLOADS\COMPILER_28-4_44444441\COMPILER_5-4_44444441\NEWTEST\DEBUG\LEX.YY.OBJ|C:\USERS\ANDROID-8AC77B8677CE\DOWNLOADS\COMPILER_28-4_44444441\COMPILER_5-4_44444441\NEWTEST\DEBUG\LISTNODE.OBJ|C:\USERS\ANDROID-8AC77B8677CE\DOWNLOADS\COMPILER_28-4_44444441\COMPILER_5-4_44444441\NEWTEST\DEBUG\MYMAP.OBJ|C:\USERS\ANDROID-8AC77B8677CE\DOWNLOADS\COMPILER_28-4_44444441\COMPILER_5-4_44444441\NEWTEST\DEBUG\MYPARSER.OBJ|C:\USERS\ANDROID-8AC77B8677CE\DOWNLOADS\COMPILER_28-4_44444441\COMPILER_5-4_44444441\NEWTEST\DEBUG\MYSCOPE.OBJ|C:\USERS\ANDROID-8AC77B8677CE\DOWNLOADS\COMPILER_28-4_44444441\COMPILER_5-4_44444441\NEWTEST\DEBUG\NEWNODE.OBJ|C:\USERS\ANDROID-8AC77B8677CE\DOWNLOADS\COMPILER_28-4_44444441\COMPILER_5-4_44444441\NEWTEST\DEBUG\NODE.OBJ|C:\USERS\ANDROID-8AC77B8677CE\DOWNLOADS\COMPILER_28-4_44444441\COMPILER_5-4_44444441\NEWTEST\DEBUG\PARAMETERNODE.OBJ|C:\USERS\ANDROID-8AC77B8677CE\DOWNLOADS\COMPILER_28-4_44444441\COMPILER_5-4_44444441\NEWTEST\DEBUG\RETURNNODE.OBJ|C:\USERS\ANDROID-8AC77B8677CE\DOWNLOADS\COMPILER_28-4_44444441\COMPILER_5-4_44444441\NEWTEST\DEBUG\SWITCHNODE.OBJ|C:\USERS\ANDROID-8AC77B8677CE\DOWNLOADS\COMPILER_28-4_44444441\COMPILER_5-4_44444441\NEWTEST\DEBUG\SYMBOLTABLE.OBJ|C:\USERS\ANDROID-8AC77B8677CE\DOWNLOADS\COMPILER_28-4_44444441\COMPILER_5-4_44444441\NEWTEST\DEBUG\TRYNODE.OBJ|C:\USERS\ANDROID-8AC77B8677CE\DOWNLOADS\COMPILER_28-4_44444441\COMPILER_5-4_44444441\NEWTEST\DEBUG\VARIABLEDEC.OBJ|C:\USERS\ANDROID-8AC77B8677CE\DOWNLOADS\COMPILER_28-4_44444441\COMPILER_5-4_44444441\NEWTEST\DEBUG\VARIABLENODE.OBJ|C:\USERS\ANDROID-8AC77B8677CE\DOWNLOADS\COMPILER_28-4_44444441\COMPILER_5-4_44444441\NEWTEST\DEBUG\WHILENODE.OBJ|C:\USERS\ANDROID-8AC77B8677CE\DOWNLOADS\COMPILER_28-4_44444441\COMPILER_5-4_44444441\NEWTEST\DEBUG\YACC.OBJ
C:\PROGRAM FILES\WINDOWS KITS\8.1\LIB\WINV6.3\UM\X86\KERNEL32.LIB
C:\PROGRAM FILES\WINDOWS KITS\8.1\LIB\WINV6.3\UM\X86\USER32.LIB
C:\PROGRAM FILES\WINDOWS KITS\8.1\LIB\WINV6.3\UM\X86\GDI32.LIB
C:\PROGRAM FILES\WINDOWS KITS\8.1\LIB\WINV6.3\UM\X86\WINSPOOL.LIB
C:\PROGRAM FILES\WINDOWS KITS\8.1\LIB\WINV6.3\UM\X86\COMDLG32.LIB
C:\PROGRAM FILES\WINDOWS KITS\8.1\LIB\WINV6.3\UM\X86\ADVAPI32.LIB
C:\PROGRAM FILES\WINDOWS KITS\8.1\LIB\WINV6.3\UM\X86\SHELL32.LIB
C:\PROGRAM FILES\WINDOWS KITS\8.1\LIB\WINV6.3\UM\X86\OLE32.LIB
C:\PROGRAM FILES\WINDOWS KITS\8.1\LIB\WINV6.3\UM\X86\OLEAUT32.LIB
C:\PROGRAM FILES\WINDOWS KITS\8.1\LIB\WINV6.3\UM\X86\UUID.LIB
C:\PROGRAM FILES\WINDOWS KITS\8.1\LIB\WINV6.3\UM\X86\ODBC32.LIB
C:\PROGRAM FILES\WINDOWS KITS\8.1\LIB\WINV6.3\UM\X86\ODBCCP32.LIB
C:\USERS\ANDROID-8AC77B8677CE\DOWNLOADS\COMPILER_28-4_44444441\COMPILER_5-4_44444441\NEWTEST\DEBUG\ASSIGNMENTNODE.OBJ
C:\USERS\ANDROID-8AC77B8677CE\DOWNLOADS\COMPILER_28-4_44444441\COMPILER_5-4_44444441\NEWTEST\DEBUG\BINARYOPERATIONNODE.OBJ
C:\USERS\ANDROID-8AC77B8677CE\DOWNLOADS\COMPILER_28-4_44444441\COMPILER_5-4_44444441\NEWTEST\DEBUG\BREAKNODE.OBJ
C:\USERS\ANDROID-8AC77B8677CE\DOWNLOADS\COMPILER_28-4_44444441\COMPILER_5-4_44444441\NEWTEST\DEBUG\CATCHNODE.OBJ
C:\USERS\ANDROID-8AC77B8677CE\DOWNLOADS\COMPILER_28-4_44444441\COMPILER_5-4_44444441\NEWTEST\DEBUG\CLASSDEFINENODE.OBJ
C:\USERS\ANDROID-8AC77B8677CE\DOWNLOADS\COMPILER_28-4_44444441\COMPILER_5-4_44444441\NEWTEST\DEBUG\CLASSMEMNODE.OBJ
C:\USERS\ANDROID-8AC77B8677CE\DOWNLOADS\COMPILER_28-4_44444441\COMPILER_5-4_44444441\NEWTEST\DEBUG\CONTINUENODE.OBJ
C:\USERS\ANDROID-8AC77B8677CE\DOWNLOADS\COMPILER_28-4_44444441\COMPILER_5-4_44444441\NEWTEST\DEBUG\VARIABLEDEC.OBJ
C:\USERS\ANDROID-8AC77B8677CE\DOWNLOADS\COMPILER_28-4_44444441\COMPILER_5-4_44444441\NEWTEST\DEBUG\ELSENODE.OBJ
C:\USERS\ANDROID-8AC77B8677CE\DOWNLOADS\COMPILER_28-4_44444441\COMPILER_5-4_44444441\NEWTEST\DEBUG\FORNODE.OBJ
C:\USERS\ANDROID-8AC77B8677CE\DOWNLOADS\COMPILER_28-4_44444441\COMPILER_5-4_44444441\NEWTEST\DEBUG\FUNCTIONDEFINENODE.OBJ
C:\USERS\ANDROID-8AC77B8677CE\DOWNLOADS\COMPILER_28-4_44444441\COMPILER_5-4_44444441\NEWTEST\DEBUG\IDNODE.OBJ
C:\USERS\ANDROID-8AC77B8677CE\DOWNLOADS\COMPILER_28-4_44444441\COMPILER_5-4_44444441\NEWTEST\DEBUG\IFNODE.OBJ
C:\USERS\ANDROID-8AC77B8677CE\DOWNLOADS\COMPILER_28-4_44444441\COMPILER_5-4_44444441\NEWTEST\DEBUG\LISTNODE.OBJ
C:\USERS\ANDROID-8AC77B8677CE\DOWNLOADS\COMPILER_28-4_44444441\COMPILER_5-4_44444441\NEWTEST\DEBUG\NEWNODE.OBJ
C:\USERS\ANDROID-8AC77B8677CE\DOWNLOADS\COMPILER_28-4_44444441\COMPILER_5-4_44444441\NEWTEST\DEBUG\NODE.OBJ
C:\USERS\ANDROID-8AC77B8677CE\DOWNLOADS\COMPILER_28-4_44444441\COMPILER_5-4_44444441\NEWTEST\DEBUG\PARAMETERNODE.OBJ
C:\USERS\ANDROID-8AC77B8677CE\DOWNLOADS\COMPILER_28-4_44444441\COMPILER_5-4_44444441\NEWTEST\DEBUG\LEAFNODE.OBJ
C:\USERS\ANDROID-8AC77B8677CE\DOWNLOADS\COMPILER_28-4_44444441\COMPILER_5-4_44444441\NEWTEST\DEBUG\RETURNNODE.OBJ
C:\USERS\ANDROID-8AC77B8677CE\DOWNLOADS\COMPILER_28-4_44444441\COMPILER_5-4_44444441\NEWTEST\DEBUG\SWITCHNODE.OBJ
C:\USERS\ANDROID-8AC77B8677CE\DOWNLOADS\COMPILER_28-4_44444441\COMPILER_5-4_44444441\NEWTEST\DEBUG\TRYNODE.OBJ
C:\USERS\ANDROID-8AC77B8677CE\DOWNLOADS\COMPILER_28-4_44444441\COMPILER_5-4_44444441\NEWTEST\DEBUG\VARIABLENODE.OBJ
C:\USERS\ANDROID-8AC77B8677CE\DOWNLOADS\COMPILER_28-4_44444441\COMPILER_5-4_44444441\NEWTEST\DEBUG\WHILENODE.OBJ
C:\USERS\ANDROID-8AC77B8677CE\DOWNLOADS\COMPILER_28-4_44444441\COMPILER_5-4_44444441\NEWTEST\DEBUG\LEX.YY.OBJ
C:\USERS\ANDROID-8AC77B8677CE\DOWNLOADS\COMPILER_28-4_44444441\COMPILER_5-4_44444441\NEWTEST\DEBUG\MYMAP.OBJ
C:\USERS\ANDROID-8AC77B8677CE\DOWNLOADS\COMPILER_28-4_44444441\COMPILER_5-4_44444441\NEWTEST\DEBUG\MYPARSER.OBJ
C:\USERS\ANDROID-8AC77B8677CE\DOWNLOADS\COMPILER_28-4_44444441\COMPILER_5-4_44444441\NEWTEST\DEBUG\MYSCOPE.OBJ
C:\USERS\ANDROID-8AC77B8677CE\DOWNLOADS\COMPILER_28-4_44444441\COMPILER_5-4_44444441\NEWTEST\DEBUG\SYMBOLTABLE.OBJ
C:\USERS\ANDROID-8AC77B8677CE\DOWNLOADS\COMPILER_28-4_44444441\COMPILER_5-4_44444441\NEWTEST\DEBUG\YACC.OBJ
C:\WINDOWS\SYSTEM32\TZRES.DLL
C:\WINDOWS\GLOBALIZATION\SORTING\SORTDEFAULT.NLS
C:\PROGRAM FILES\MICROSOFT VISUAL STUDIO 12.0\VC\LIB\MSVCPRTD.LIB
C:\PROGRAM FILES\MICROSOFT VISUAL STUDIO 12.0\VC\LIB\MSVCRTD.LIB
C:\PROGRAM FILES\MICROSOFT VISUAL STUDIO 12.0\VC\LIB\OLDNAMES.LIB
